<?xml version="1.0" encoding="UTF-8" standalone="no"?>
<svg xmlns="http://www.w3.org/2000/svg"
   version="1.1"
   viewBox="0 0 159.6621 159.66139">
  <g
     class="returning-policy"
     transform="translate(-.16893 -1.103)">
    <g
       transform="matrix(1.25 0 0 -1.25 -1268.3 1743.8)">
      <g
         class="stamp">
        <path
           class="border"
           d="m 1137.9,1330.3 c 10.315,-19.226 2.522,-36.632 -17.371,-41.937 -5.306,-19.893 -22.712,-27.686 -41.937,-17.371 -19.226,-10.315 -36.632,-2.522 -41.938,17.371 -19.893,5.305 -27.685,22.711 -17.371,41.937 -10.314,19.226 -2.522,36.632 17.371,41.937 5.306,19.893 22.712,27.686 41.938,17.371 19.225,10.315 36.631,2.522 41.937,-17.371 19.893,-5.305 27.686,-22.711 17.371,-41.937"
           />
        <path
           class="body"
           d="m 1133.7,1330.3 c 9.574,-17.845 2.341,-34 -16.123,-38.925 -4.925,-18.463 -21.08,-25.696 -38.925,-16.123 -17.845,-9.573 -34,-2.34 -38.924,16.123 -18.464,4.925 -25.697,21.08 -16.124,38.925 -9.573,17.845 -2.34,34 16.124,38.925 4.924,18.463 21.079,25.696 38.924,16.123 17.845,9.573 34,2.34 38.925,-16.123 18.464,-4.925 25.697,-21.08 16.123,-38.925"/>
        <path
           style="fill:none"
           class="stroke"
           stroke-miterlimit="10"
           d="m 1134,1330.3 c 0,-15.279 -6.193,-29.112 -16.206,-39.125 -10.013,-10.013 -23.846,-16.206 -39.125,-16.206 -15.279,0 -29.112,6.193 -39.125,16.206 -10.013,10.013 -16.206,23.846 -16.206,39.125 0,15.279 6.193,29.112 16.206,39.125 10.013,10.013 23.846,16.206 39.125,16.206 15.279,0 29.112,-6.193 39.125,-16.206 10.013,-10.013 16.206,-23.846 16.206,-39.125 z"/>
        <path
           style="fill:none"
           class="stroke"
           stroke-miterlimit="10"
           d="m 1117.2,1330.3 c 0,-10.652 -4.318,-20.295 -11.298,-27.276 -6.981,-6.981 -16.624,-11.298 -27.276,-11.298 -10.652,0 -20.296,4.317 -27.276,11.298 -6.981,6.981 -11.298,16.624 -11.298,27.276 0,10.652 4.317,20.296 11.298,27.276 6.98,6.981 16.624,11.298 27.276,11.298 10.652,0 20.295,-4.317 27.276,-11.298 6.98,-6.98 11.298,-16.624 11.298,-27.276 z"
           />
      </g>
      <g
         font-weight="bold"
         font-stretch="condensed"
         font-family="'sans-serif'"
         class="text">
        <text
           transform="scale(1,-1)"
           font-size="24.755px"
           y="-1324.3666"
           x="1047.975"
           class="percent"
           style="font-style:normal;font-variant:normal;font-weight:bold;font-stretch:normal;font-size:20px;line-height:125%;font-family:sans-serif;-inkscape-font-specification:'sans-serif, Bold';text-align:start;writing-mode:lr;text-anchor:start;">
          <tspan
             y="-1324.3666"
             x="1047.975 1059.9813 1071.9871 1083.993"
             style="font-style:normal;font-variant:normal;font-weight:bold;font-stretch:normal;font-size:20px;line-height:125%;font-family:sans-serif;-inkscape-font-specification:'sans-serif, Bold';text-align:start;writing-mode:lr;text-anchor:start;">100%</tspan>
        </text>
        <g
           class="return">
          <text
             style="font-style:normal;font-variant:normal;font-weight:bold;font-stretch:normal;font-size:12.00000013px;line-height:125%;font-family:sans-serif;-inkscape-font-specification:'sans-serif, Bold';text-align:start;writing-mode:lr;text-anchor:start;"
             x="-465.48871"
             y="-1598.0696"
             transform="matrix(0.57832,-0.81581,-0.81581,-0.57832,0,0)"
             font-size="14.201px">
            <tspan
               style="font-style:normal;font-variant:normal;font-weight:bold;font-stretch:normal;font-size:12.00000013px;line-height:125%;font-family:sans-serif;-inkscape-font-specification:'sans-serif, Bold';text-align:start;writing-mode:lr;text-anchor:start;"
               x="-465.48871"
               y="-1598.0696">В</tspan>
          </text>
          <text
             style="font-style:normal;font-variant:normal;font-weight:bold;font-stretch:normal;font-size:11.99999804px;line-height:125%;font-family:sans-serif;-inkscape-font-specification:'sans-serif, Bold';text-align:start;writing-mode:lr;text-anchor:start;"
             x="-160.59312"
             y="-1654.2711"
             transform="matrix(0.71602,-0.69808,-0.69808,-0.71602,0,0)"
             font-size="14.201px">
            <tspan
               style="font-style:normal;font-variant:normal;font-weight:bold;font-stretch:normal;font-size:11.99999804px;line-height:125%;font-family:sans-serif;-inkscape-font-specification:'sans-serif, Bold';text-align:start;writing-mode:lr;text-anchor:start;"
               x="-160.59312"
               y="-1654.2711">О</tspan>
          </text>
          <text
             style="font-style:normal;font-variant:normal;font-weight:bold;font-stretch:normal;font-size:12.00002146px;line-height:125%;font-family:sans-serif;-inkscape-font-specification:'sans-serif, Bold';text-align:start;writing-mode:lr;text-anchor:start;"
             x="152.76222"
             y="-1654.2256"
             transform="matrix(0.83114,-0.55606,-0.55606,-0.83114,0,0)"
             font-size="14.201px">
            <tspan
               style="font-style:normal;font-variant:normal;font-weight:bold;font-stretch:normal;font-size:12.00002146px;line-height:125%;font-family:sans-serif;-inkscape-font-specification:'sans-serif, Bold';text-align:start;writing-mode:lr;text-anchor:start;"
               x="152.76222"
               y="-1654.2256">З</tspan>
          </text>
          <text             
             style="font-style:normal;font-variant:normal;font-weight:bold;font-stretch:normal;font-size:11.99999944px;line-height:125%;font-family:sans-serif;-inkscape-font-specification:'sans-serif, Bold';text-align:start;writing-mode:lr;text-anchor:start;"
             x="451.09897"
             y="-1599.8531"
             transform="matrix(0.91617,-0.40079,-0.40079,-0.91617,0,0)"
             font-size="14.201px">
            <tspan
               style="font-style:normal;font-variant:normal;font-weight:bold;font-stretch:normal;font-size:11.99999944px;line-height:125%;font-family:sans-serif;-inkscape-font-specification:'sans-serif, Bold';text-align:start;writing-mode:lr;text-anchor:start;"
               x="451.09897"
               y="-1599.8531">В</tspan>
          </text>
          <text
             style="font-style:normal;font-variant:normal;font-weight:bold;font-stretch:normal;font-size:12.0000561px;line-height:125%;font-family:sans-serif;-inkscape-font-specification:'sans-serif, Bold';text-align:start;writing-mode:lr;text-anchor:start;"
             x="734.50397"
             y="-1494.0042"
             transform="matrix(0.9724,-0.2333,-0.2333,-0.9724,0,0)"
             font-size="14.201px">
            <tspan
               style="font-style:normal;font-variant:normal;font-weight:bold;font-stretch:normal;font-size:12.0000561px;line-height:125%;font-family:sans-serif;-inkscape-font-specification:'sans-serif, Bold';text-align:start;writing-mode:lr;text-anchor:start;"
               x="734.50397"
               y="-1494.0042">Р</tspan>
          </text>
          <text
             style="font-style:normal;font-variant:normal;font-weight:bold;font-stretch:normal;font-size:11.99997104px;line-height:125%;font-family:sans-serif;-inkscape-font-specification:'sans-serif, Bold';text-align:start;writing-mode:lr;text-anchor:start;"
             x="963.90967"
             y="-1361.6731"
             transform="matrix(0.99675,-0.080587,-0.080587,-0.99675,0,0)"
             font-size="14.201px">
            <tspan
               style="font-style:normal;font-variant:normal;font-weight:bold;font-stretch:normal;font-size:11.99997104px;line-height:125%;font-family:sans-serif;-inkscape-font-specification:'sans-serif, Bold';text-align:start;writing-mode:lr;text-anchor:start;"
               x="963.90967"
               y="-1361.6731">А</tspan>
          </text>
          <text
             style="font-style:normal;font-variant:normal;font-weight:bold;font-stretch:normal;font-size:11.9999787px;line-height:125%;font-family:sans-serif;-inkscape-font-specification:'sans-serif, Bold';text-align:start;writing-mode:lr;text-anchor:start;"
             x="1157.1449"
             y="-1208.1982"
             transform="matrix(0.998,0.063242,0.063242,-0.998,0,0)"
             font-size="14.201px">
            <tspan
               style="font-style:normal;font-variant:normal;font-weight:bold;font-stretch:normal;font-size:11.9999787px;line-height:125%;font-family:sans-serif;-inkscape-font-specification:'sans-serif, Bold';text-align:start;writing-mode:lr;text-anchor:start;"
               x="1157.1449"
               y="-1208.1982">Т</tspan>
          </text>
          <text
             style="font-style:normal;font-variant:normal;font-weight:bold;font-stretch:normal;font-size:12.00004169px;line-height:125%;font-family:sans-serif;-inkscape-font-specification:'sans-serif, Bold';text-align:start;writing-mode:lr;text-anchor:start;"
             x="1427.2965"
             y="-888.7243"
             transform="matrix(0.95278,0.30365,0.30365,-0.95278,0,0)"
             font-size="14.201px"
             id="text364-9">
            <tspan
               style="font-style:normal;font-variant:normal;font-weight:bold;font-stretch:normal;font-size:12.00004169px;line-height:125%;font-family:sans-serif;-inkscape-font-specification:'sans-serif, Bold';text-align:start;writing-mode:lr;text-anchor:start;"
               x="1427.2965"
               y="-888.7243"
               id="tspan366-8">Д</tspan>
          </text>
          <text             
             style="font-style:normal;font-variant:normal;font-weight:bold;font-stretch:normal;font-size:11.99995907px;line-height:125%;font-family:sans-serif;-inkscape-font-specification:'sans-serif, Bold';text-align:start;writing-mode:lr;text-anchor:start;"
             x="1569.2449"
             y="-626.77277"
             transform="matrix(0.88586,0.46396,0.46396,-0.88586,0,0)"
             font-size="14.201px"
             id="text368-6">
            <tspan
               style="font-style:normal;font-variant:normal;font-weight:bold;font-stretch:normal;font-size:11.99995907px;line-height:125%;font-family:sans-serif;-inkscape-font-specification:'sans-serif, Bold';text-align:start;writing-mode:lr;text-anchor:start;"
               x="1569.2449"
               y="-626.77277"
               id="tspan370-8">Е</tspan>
          </text>
          <text
             style="font-style:normal;font-variant:normal;font-weight:bold;font-stretch:normal;font-size:12.00005808px;line-height:125%;font-family:sans-serif;-inkscape-font-specification:'sans-serif, Bold';text-align:start;writing-mode:lr;text-anchor:start;"
             x="1661.6293"
             y="-345.70795"
             transform="matrix(0.79268,0.60963,0.60963,-0.79268,0,0)"
             font-size="14.201px">
            <tspan
               style="font-style:normal;font-variant:normal;font-weight:bold;font-stretch:normal;font-size:12.00005808px;line-height:125%;font-family:sans-serif;-inkscape-font-specification:'sans-serif, Bold';text-align:start;writing-mode:lr;text-anchor:start;"
               x="1661.6293"
               y="-345.70795">Н</tspan>
          </text>
          <text
             style="font-style:normal;font-variant:normal;font-weight:bold;font-stretch:normal;font-size:11.99993832px;line-height:125%;font-family:sans-serif;-inkscape-font-specification:'sans-serif, Bold';text-align:start;writing-mode:lr;text-anchor:start;"
             x="1705.8981"
             y="-55.518677"
             transform="matrix(0.677,0.73599,0.73599,-0.677,0,0)"
             font-size="14.201px">
            <tspan
               style="font-style:normal;font-variant:normal;font-weight:bold;font-stretch:normal;font-size:11.99993832px;line-height:125%;font-family:sans-serif;-inkscape-font-specification:'sans-serif, Bold';text-align:start;writing-mode:lr;text-anchor:start;"
               x="1705.8981"
               y="-55.518677">Е</tspan>
          </text>
          <text
             style="font-style:normal;font-variant:normal;font-weight:bold;font-stretch:normal;font-size:12.00001072px;line-height:125%;font-family:sans-serif;-inkscape-font-specification:'sans-serif, Bold';text-align:start;writing-mode:lr;text-anchor:start;"
             x="1702.3102"
             y="205.41287"
             transform="matrix(0.55733,0.83029,0.83029,-0.55733,0,0)"
             font-size="14.201px">
            <tspan
               style="font-style:normal;font-variant:normal;font-weight:bold;font-stretch:normal;font-size:12.00001072px;line-height:125%;font-family:sans-serif;-inkscape-font-specification:'sans-serif, Bold';text-align:start;writing-mode:lr;text-anchor:start;"
               x="1702.3102"
               y="205.41287">Г</tspan>
          </text>
        </g>
        <g
           class="garantee">
          <text
             x="1659.0768"
             y="-451.89401"
             transform="matrix(0.798,0.60266,0.60266,-0.798,0,0)"
             font-size="14.201px"
             style="font-style:normal;font-variant:normal;font-weight:bold;font-stretch:normal;font-size:11.99998155px;line-height:125%;font-family:sans-serif;-inkscape-font-specification:'sans-serif, Bold';text-align:start;writing-mode:lr;text-anchor:start;">
            <tspan
               x="1659.0768"
               y="-451.89401"
               style="font-style:normal;font-variant:normal;font-weight:bold;font-stretch:normal;font-size:11.99998155px;line-height:125%;font-family:sans-serif;-inkscape-font-specification:'sans-serif, Bold';text-align:start;writing-mode:lr;text-anchor:start;">Г</tspan>
          </text>
          <text
             x="1583.4108"
             y="-683.4682"
             transform="matrix(0.87539,0.48342,0.48342,-0.87539,0,0)"
             font-size="14.201px"
             style="font-style:normal;font-variant:normal;font-weight:bold;font-stretch:normal;font-size:11.99998471px;line-height:125%;font-family:sans-serif;-inkscape-font-specification:'sans-serif, Bold';text-align:start;writing-mode:lr;text-anchor:start;">
            <tspan
               x="1583.4108"
               y="-683.4682"
               style="font-style:normal;font-variant:normal;font-weight:bold;font-stretch:normal;font-size:11.99998471px;line-height:125%;font-family:sans-serif;-inkscape-font-specification:'sans-serif, Bold';text-align:start;writing-mode:lr;text-anchor:start;">А</tspan>
          </text>
          <text
             x="1437.4004"
             y="-965.36322"
             transform="matrix(0.94957,0.31356,0.31356,-0.94957,0,0)"
             font-size="14.201px"
             style="font-style:normal;font-variant:normal;font-weight:bold;font-stretch:normal;font-size:11.99998165px;line-height:125%;font-family:sans-serif;-inkscape-font-specification:'sans-serif, Bold';text-align:start;writing-mode:lr;text-anchor:start;">
            <tspan
               x="1437.4004"
               y="-965.36322"
               style="font-style:normal;font-variant:normal;font-weight:bold;font-stretch:normal;font-size:11.99998165px;line-height:125%;font-family:sans-serif;-inkscape-font-specification:'sans-serif, Bold';text-align:start;writing-mode:lr;text-anchor:start;">Р</tspan>
          </text>
          <text
             x="1267.2566"
             y="-1188.0166"
             transform="matrix(0.98799,0.15453,0.15453,-0.98799,0,0)"
             font-size="14.201px"
             style="font-style:normal;font-variant:normal;font-weight:bold;font-stretch:normal;font-size:11.99997743px;line-height:125%;font-family:sans-serif;-inkscape-font-specification:'sans-serif, Bold';text-align:start;writing-mode:lr;text-anchor:start;">
            <tspan
               x="1267.2566"
               y="-1188.0166"
               style="font-style:normal;font-variant:normal;font-weight:bold;font-stretch:normal;font-size:11.99997743px;line-height:125%;font-family:sans-serif;-inkscape-font-specification:'sans-serif, Bold';text-align:start;writing-mode:lr;text-anchor:start;">А</tspan>
          </text>
          <text
             x="1022.2021"
             y="-1411.2499"
             transform="matrix(0.99926,-0.03854,-0.03854,-0.99926,0,0)"
             font-size="14.201px"
             style="font-style:normal;font-variant:normal;font-weight:bold;font-stretch:normal;font-size:11.99996472px;line-height:125%;font-family:sans-serif;-inkscape-font-specification:'sans-serif, Bold';text-align:start;writing-mode:lr;text-anchor:start;">
            <tspan
               x="1022.2021"
               y="-1411.2499"
               style="font-style:normal;font-variant:normal;font-weight:bold;font-stretch:normal;font-size:11.99996472px;line-height:125%;font-family:sans-serif;-inkscape-font-specification:'sans-serif, Bold';text-align:start;writing-mode:lr;text-anchor:start;">Н</tspan>
          </text>
          <text
             x="763.60217"
             y="-1571.6219"
             transform="matrix(0.97657,-0.2152,-0.2152,-0.97657,0,0)"
             font-size="14.201px"
             style="font-style:normal;font-variant:normal;font-weight:bold;font-stretch:normal;font-size:11.99999997px;line-height:125%;font-family:sans-serif;-inkscape-font-specification:'sans-serif, Bold';text-align:start;writing-mode:lr;text-anchor:start;">
            <tspan
               x="763.60217"
               y="-1571.6219"
               style="font-style:normal;font-variant:normal;font-weight:bold;font-stretch:normal;font-size:11.99999997px;line-height:125%;font-family:sans-serif;-inkscape-font-specification:'sans-serif, Bold';text-align:start;writing-mode:lr;text-anchor:start;">Т</tspan>
          </text>
          <text
             x="471.80688"
             y="-1685.5187"
             transform="matrix(0.92121,-0.38906,-0.38906,-0.92121,0,0)"
             font-size="14.201px"
             style="font-style:normal;font-variant:normal;font-weight:bold;font-stretch:normal;font-size:12.00002671px;line-height:125%;font-family:sans-serif;-inkscape-font-specification:'sans-serif, Bold';text-align:start;writing-mode:lr;text-anchor:start;">
            <tspan
               x="471.80688"
               y="-1685.5187"
               style="font-style:normal;font-variant:normal;font-weight:bold;font-stretch:normal;font-size:12.00002671px;line-height:125%;font-family:sans-serif;-inkscape-font-specification:'sans-serif, Bold';text-align:start;writing-mode:lr;text-anchor:start;">И</tspan>
          </text>
          <text
             x="157.95256"
             y="-1745.3771"
             transform="matrix(0.83272,-0.5537,-0.5537,-0.83272,0,0)"
             font-size="14.201px"
             style="font-style:normal;font-variant:normal;font-weight:bold;font-stretch:normal;font-size:11.99996227px;line-height:125%;font-family:sans-serif;-inkscape-font-specification:'sans-serif, Bold';text-align:start;writing-mode:lr;text-anchor:start;">
            <tspan
               x="157.95256"
               y="-1745.3771"
               id="tspan414-6"
               style="font-style:normal;font-variant:normal;font-weight:bold;font-stretch:normal;font-size:11.99996227px;line-height:125%;font-family:sans-serif;-inkscape-font-specification:'sans-serif, Bold';text-align:start;writing-mode:lr;text-anchor:start;">Я</tspan>
          </text>
        </g>
      </g>
    </g>
  </g>
</svg>
